{
  "index": 0,
  "epoch": 0,
  "firstLevel": 1,
  "startTime": "2018-06-30T17:39:57Z",
  "lastLevel": 32768,
  "endTime": "2018-07-24T22:19:27Z",
  "kind": "proposal",
  "status": "no_proposals",
  "totalBakers": 8,
  "totalVotingPower": 15280,
  "upvotesQuorum": 0,
  "proposalsCount": 0,
  "topUpvotes": 0,
  "topVotingPower": 0
}
